%YAML 1.1
%TAG !u! tag:unity3d.com,2011:
--- !u!1045 &1
EditorBuildSettings:
  m_ObjectHideFlags: 0
  serializedVersion: 2
  m_Scenes:
  - enabled: 1
    path: Assets/_MainMenu/Scenes/Shell.unity
    guid: cbd73cb8898225b40b79bad9c94e6a44
  - enabled: 1
    path: Assets/MainGame/Scenes/level1.unity
    guid: 0b7ed4bd5ae0abc4a85edde9b2ac9429
  - enabled: 1
    path: Assets/MainGame/Scenes/level2.unity
    guid: 88a02e3ff57fcd746a900376000942d1
  - enabled: 1
    path: Assets/MainGame/Scenes/level3.unity
    guid: 9e76ba7677ff89942a86fa2f643094f3
  - enabled: 1
    path: Assets/MainGame/Scenes/level4.unity
    guid: c454aa63325ce854dbbb558c52e8336c
  - enabled: 1
    path: Assets/MainGame/Scenes/scn_GameOver.unity
    guid: 4e08f358b28ebda43a83d2e7097fb007
  - enabled: 1
    path: Assets/MainGame/Scenes/scn_Test.unity
    guid: a3ebde96104ae6f47a280b91e1c2ebfd
  - enabled: 1
    path: Assets/MainGame/Scenes/Victory.unity
    guid: 76eeaebb176bfd344833386cbb3a25fe
